Intro2r: datafest@duke - Import Data
…
ℹ Use `spec()` to retrieve the full column specification for this data.
ℹ Specify the column types or set `show_col_types = FALSE` to quiet this message.

# View(brodheadCenter)

Look at the data object

brodhead_center

# A tibble: 59 × 7
   name              type          menuType  itemType itemName       cost rating
   <chr>             <chr>         <chr>     <chr>    <chr>         <dbl>  <dbl>
 1 Devils Krafthouse bar and grill appetizer snack    sweet potato…     4      8
 2 Devils Krafthouse bar and grill appetizer snack    french fries      4     10
 3 Devils Krafthouse bar and grill appetizer snack    quesadillas       6      5
 4 Devils Krafthouse bar and grill appetizer snack    southwest ch…     8      6
 5 Devils Krafthouse bar and grill appetizer snack    chicken tend…     7      7
 6 Devils Krafthouse bar and grill appetizer snack    nachos            8      8
 7 Devils Krafthouse bar and grill appetizer snack    peel and eat…     9      5
 8 Devils Krafthouse bar and grill appetizer snack    tortilla chi…     4      6
 9 Devils Krafthouse bar and grill entree    sandwich turkey club …     9      5
10 Devils Krafthouse bar and grill entree    sandwich fried chicke…     9      5
# … with 49 more rows
…
summarize()
generate column totals and subtotals, etc.

count()
a specialized summarize() function

Examples

select()

brodhead_center |> 
  select(name, type)

# A tibble: 59 × 2
   name              type         
   <chr>             <chr>        
 1 Devils Krafthouse bar and grill
 2 Devils Krafthouse bar and grill
 3 Devils Krafthouse bar and grill
 4 Devils Krafthouse bar and grill
 5 Devils Krafthouse bar and grill
 6 Devils Krafthouse bar and grill
 7 Devils Krafthouse bar and grill
 8 Devils Krafthouse bar and grill
 9 Devils Krafthouse bar and grill
10 Devils Krafthouse bar and grill
# … with 49 more rows
…
Filter by rows

arrange()

brodhead_center |> 
  arrange(cost)

# A tibble: 59 × 7
   name              type          menuType  itemType  itemName      cost rating
   <chr>             <chr>         <chr>     <chr>     <chr>        <dbl>  <dbl>
 1 Tandoor           restaurant    appetizer bread     naan             2     10
 2 Tandoor           restaurant    appetizer bread     onion kulcha     3      8
 3 Tandoor           restaurant    appetizer bread     garlic naan      3     10
 4 Devils Krafthouse bar and grill appetizer snack     sweet potat…     4      8
 5 Devils Krafthouse bar and grill appetizer snack     french fries     4     10
 6 Devils Krafthouse bar and grill appetizer snack     tortilla ch…     4      6
 7 Devils Krafthouse bar and grill side      soup      black bean …     4      8
 8 Tandoor           restaurant    appetizer appetizer vegetable s…     4      8
 9 Tandoor           restaurant    appetizer appetizer gobi pakora      4     NA
10 Tandoor           restaurant    appetizer appetizer aloo bhonda      4     NA
# … with 49 more rows
…
Arrange rows by the values in a column

mutate()

brodhead_center |> 
  mutate(ratings_high = rating * 2)

# A tibble: 59 × 8
   name              type          menuType itemT…¹ itemN…²  cost rating ratin…³
   <chr>             <chr>         <chr>    <chr>   <chr>   <dbl>  <dbl>   <dbl>
 1 Devils Krafthouse bar and grill appetiz… snack   sweet …     4      8      16
 2 Devils Krafthouse bar and grill appetiz… snack   french…     4     10      20
 3 Devils Krafthouse bar and grill appetiz… snack   quesad…     6      5      10
 4 Devils Krafthouse bar and grill appetiz… snack   southw…     8      6      12
 5 Devils Krafthouse bar and grill appetiz… snack   chicke…     7      7      14
 6 Devils Krafthouse bar and grill appetiz… snack   nachos      8      8      16
 7 Devils Krafthouse bar and grill appetiz… snack   peel a…     9      5      10
 8 Devils Krafthouse bar and grill appetiz… snack   tortil…     4      6      12
 9 Devils Krafthouse bar and grill entree   sandwi… turkey…     9      5      10
10 Devils Krafthouse bar and grill entree   sandwi… fried …     9      5      10
# … with 49 more rows, and abbreviated variable names ¹​itemType, ²​itemName,
#   ³​ratings_high
…
