Intro2r: datafest@duke - example EDA
…
race_df |> 
  count(participation, sort = TRUE)

# A tibble: 4 × 2
  participation     n
  <chr>         <int>
1 solo           1152
2 Solo             41
3 team             13
4 relay             1

race_df |> 
  count(participants, sort = TRUE)

# A tibble: 74 × 2
   participants     n
          <dbl> <int>
 1            0   582
 2          100    93
 3           50    69
 4          300    62
 5          150    59
 6          200    58
 7           30    25
 8          250    25
 9          400    25
10          500    23
# … with 64 more rows
…
# A tibble: 5 × 8
  race_year_id  rank runner          time          age gender national…¹ time_…²
         <dbl> <dbl> <chr>           <chr>       <dbl> <chr>  <chr>        <dbl>
1        25073  1167 FINN Adharanand 43H 9M 7S      47 M      KEN         155347
2        27555    NA NEWLAND Peter   <NA>           51 M      KEN             NA
3        19705    NA NEWLAND Peter   <NA>           51 M      KEN             NA
4        18229   102 NOWAK Sean      26H 17M 33S    45 M      KEN          94653
5        10903    75 POHLMAN Eric    30H 2M 49S     39 M      KEN         108169
# … with abbreviated variable names ¹​nationality, ²​time_in_seconds

rank_df |> 
  arrange(rank)

# A tibble: 137,803 × 8
   race_year_id  rank runner           time          age gender nation…¹ time_…²
          <dbl> <dbl> <chr>            <chr>       <dbl> <chr>  <chr>      <dbl>
 1        68140     1 VERHEUL Jasper   26H 35M 25S    30 M      GBR        95725
 2        72496     1 D HAENE Francois 20H 45M 59S    36 M      FRA        74759
 3        69855     1 PIPITONE Anthony 24H 46M 23S    36 M      FRA        89183
 4        67856     1 MARINOV Dimitar  20H 41M 6S     37 M      BUL        74466
 5        67856     1 Minkov Hristo    20H 41M 6S     20 M      BUL        74466
 6        70469     1 SEMIZ Ferhat     18H 50M 44S    35 M      TUR        67844
 7        66887     1 GIRARD Matthieu  26H 24M 43S    49 M      SUI        95083
 8        67851     1 HERMANSEN Didrik 19H 52M 51S    41 M      NOR        71571
 9        68241     1 LEJEUNE Sylvain  17H 31M 24S    34 M      BEL        63084
10        70241     1 GAILLARD Benoit  21H 15M 10S    37 M      FRA        76510
# … with 137,793 more rows, and abbreviated variable names ¹​nationality,
#   ²​time_in_seconds

rank_df |> 
  count(rank, sort = TRUE)

# A tibble: 1,963 × 2
    rank     n
   <dbl> <int>
 1    NA 17791
 2     1  1237
 3     2  1211
 4     3  1178
 5     4  1178
 6     5  1141
 7     6  1138
 8     7  1125
 9     8  1113
10     9  1094
# … with 1,953 more rows

rank_df |> 
  drop_na(rank) |> 
  count(rank, gender, age, sort = TRUE)

# A tibble: 39,194 × 4
    rank gender   age     n
   <dbl> <chr>  <dbl> <int>
 1     1 M         36    73
 2     2 M         42    72
 3     4 M         41    70
 4     1 M         42    67
 5     4 M         44    66
 6     1 M         39    64
 7     2 M         40    63
 8     1 M         43    62
 9     1 M         41    60
10     2 M         39    60
# … with 39,184 more rows

race_df |> 
  count(distance, sort = TRUE)

# A tibble: 197 × 2
   distance     n
      <dbl> <int>
 1     161    157
 2       0     74
 3     160     28
 4     162.    18
 5     162.    18
 6     161.    17
 7     162.    17
 8     163     17
 9     155     16
10     162.    16
# … with 187 more rows

rank_df |> 
  filter(race_year_id == 41449)

# A tibble: 166 × 8
   race_year_id  rank runner          time          age gender nationa…¹ time_…²
          <dbl> <dbl> <chr>           <chr>       <dbl> <chr>  <chr>       <dbl>
 1        41449     1 NOLL Jon        16H 17M 31S    36 M      USA         58651
 2        41449     2 HANSON Jon      19H 21M 24S    45 M      USA         69684
 3        41449     3 LUEBKE James    20H 39M 25S    38 M      USA         74365
 4        41449     4 RAUEN Tom       20H 41M 56S    38 M      USA         74516
 5        41449     5 KEELER Jason    20H 43M 9S     39 M      USA         74589
 6        41449     6 BUCKLEY Stacey  20H 44M 8S     45 W      USA         74648
 7        41449     7 HANSEN David    20H 48M 19S    36 M      USA         74899
 8        41449     8 ADAMSKI Timothy 21H 28M 17S    33 M      USA         77297
 9        41449     9 WONNEBERG Lisa  21H 33M 55S    40 W      USA         77635
10        41449    10 BREY Curt       21H 52M 26S    42 M      USA         78746
# … with 156 more rows, and abbreviated variable names ¹​nationality,
#   ²​time_in_seconds
race_df |> 
  filter(race_year_id == 41449)

# A tibble: 1 × 13
  race_ye…¹ event race  city  country date       start…² parti…³ dista…⁴ eleva…⁵
      <dbl> <chr> <chr> <chr> <chr>   <date>     <time>  <chr>     <dbl>   <dbl>
1     41449 Kett… 100 … LaGr… United… 2019-06-01 06:00   solo        161    2650
# … with 3 more variables: elevation_loss <dbl>, aid_stations <dbl>,
#   participants <dbl>, and abbreviated variable names ¹​race_year_id,
#   ²​start_time, ³​participation, ⁴​distance, ⁵​elevation_gain

race_df |> 
  filter(distance == 161)

# A tibble: 157 × 13
   race_y…¹ event race  city  country date       start…² parti…³ dista…⁴ eleva…⁵
      <dbl> <chr> <chr> <chr> <chr>   <date>     <time>  <chr>     <dbl>   <dbl>
 1    68416 West… West… Aubu… United… 2021-06-26 05:00   solo        161    5850
 2    69523 Jian… 100M… Ning… China   2021-04-16 14:00   solo        161    7060
 3    68010 UTCL… UTCL… Bogor Indone… 2021-01-09 06:00   solo        161    6420
 4    53633 Born… 100 … Kota… Malays… 2020-03-14 06:00   solo        161    7620
 5    60007 HURT… HURT… <NA>  United… 2020-01-18 00:00   solo        161    8200
 6    41449 Kett… 100 … LaGr… United… 2019-06-01 06:00   solo        161    2650
 7    43893 HURT… HURT… <NA>  United… 2019-01-19 00:00   solo        161    8200
 8    41951 GHOS… 100 … <NA>  United… 2018-10-20 00:00   solo        161    1610
 9    36961 WASA… WASA… <NA>  United… 2018-09-07 00:00   solo        161    8215
10    36963 CASC… Casc… <NA>  United… 2018-08-18 00:00   solo        161    6700
# … with 147 more rows, 3 more variables: elevation_loss <dbl>,
#   aid_stations <dbl>, participants <dbl>, and abbreviated variable names
#   ¹​race_year_id, ²​start_time, ³​participation, ⁴​distance, ⁵​elevation_gain

race_df

# A tibble: 1,207 × 13
   race_y…¹ event race  city  country date       start…² parti…³ dista…⁴ eleva…⁵
      <dbl> <chr> <chr> <chr> <chr>   <date>     <time>  <chr>     <dbl>   <dbl>
 1    68140 Peak… Mill… Cast… United… 2021-09-03 19:00   solo       167.    4520
 2    72496 UTMB® UTMB® Cham… France  2021-08-27 17:00   Solo       171.    9930
 3    69855 Gran… Ultr… viel… France  2021-08-20 05:00   solo       167     9980
 4    67856 Pers… PERS… Asen… Bulgar… 2021-08-20 18:00   solo       164     7490
 5    70469 Runf… 100 … uluk… Turkey  2021-08-20 18:00   solo       160.     100
 6    66887 Swis… 160KM Müns… Switze… 2021-08-15 17:00   solo       160.    9850
 7    67851 Salo… Salo… Foll… Norway  2021-08-14 07:00   solo       164.    5460
 8    68241 Ultr… 160KM Spa   Belgium 2021-08-14 07:00   solo       164.    4630
 9    70241 Québ… QMT-… Beau… Canada  2021-08-13 22:00   solo       159.    6410
10    69945 Bunk… BBUT… LIND… Sweden  2021-08-07 10:00   solo       164.    3100
# … with 1,197 more rows, 3 more variables: elevation_loss <dbl>,
#   aid_stations <dbl>, participants <dbl>, and abbreviated variable names
#   ¹​race_year_id, ²​start_time, ³​participation, ⁴​distance, ⁵​elevation_gain

race_df |> 
  count(race, city, sort = TRUE)

# A tibble: 484 × 3
   race                          city               n
   <chr>                         <chr>          <int>
 1 Centurion North Downs Way 100 farnham           10
 2 Centurion Thames Path 100     London            10
 3 100 Mile                      Bandera            9
 4 100 Mile                      Bergen             9
 5 100 Mile                      Carsoncity         9
 6 100 Mile                      Hudson             9
 7 100 Miles                     FortMcDowell       9
 8 Centurion Autumn 100          GoringOnThames     9
 9 HURT 100 MILE ENDURANCE RUN   <NA>               9
10 TEC 100 Miles                 Täby               9
# … with 474 more rows
…
race_df |> 
  filter(event == "Peak District Ultras")

# A tibble: 1 × 13
  race_ye…¹ event race  city  country date       start…² parti…³ dista…⁴ eleva…⁵
      <dbl> <chr> <chr> <chr> <chr>   <date>     <time>  <chr>     <dbl>   <dbl>
1     68140 Peak… Mill… Cast… United… 2021-09-03 19:00   solo       167.    4520
# … with 3 more variables: elevation_loss <dbl>, aid_stations <dbl>,
#   participants <dbl>, and abbreviated variable names ¹​race_year_id,
#   ²​start_time, ³​participation, ⁴​distance, ⁵​elevation_gain

race_df |> 
  count(race, sort = TRUE)  

# A tibble: 371 × 2
   race                              n
   <chr>                         <int>
 1 100 Mile                        156
 2 100 Miles                        73
 3 100M                             43
 4 100 miles                        27
 5 100 MILES                        22
 6 160 Km                           22
 7 100Miles                         12
 8 100 Miler                        10
 9 Centurion North Downs Way 100    10
10 Centurion Thames Path 100        10
# … with 361 more rows

race_df |> 
  count(city, sort = TRUE)  

# A tibble: 309 × 2
   city             n
   <chr>        <int>
 1 <NA>           172
 2 Edale           13
 3 HongKong        11
 4 Hudson          10
 5 London          10
 6 farnham         10
 7 Bandera          9
 8 Bergen           9
 9 Carsoncity       9
10 FortMcDowell     9
# … with 299 more rows

race_df |> 
  count(event, sort = TRUE)  

# A tibble: 435 × 2
   event                             n
   <chr>                         <int>
 1 Burning River Endurance Run      10
 2 Centurion North Downs Way 100    10
 3 Centurion Thames Path 100        10
 4 RUN RABBIT RUN                   10
 5 Antelope Island Buffalo Run       9
 6 BEAR 100                          9
 7 Bryce Canyon                      9
 8 Cactus Rose                       9
 9 Centurion Autumn 100              9
10 Chiemgauer 100                    9
# … with 425 more rows
…
by distance

Here I use count() in different ways to see what I can see. I comment out each attempt before settling on summarizing a table of total country participants by year.

my_df_joined |> 
  mutate(participation = str_to_lower(participation)) |> 
  # count(participation, sort = TRUE)
  # count(city) |> 
  # count(race) |> 
  count(my_year, country, sort = TRUE)

# A tibble: 333 × 3
   my_year country           n
     <dbl> <chr>         <int>
 1    2019 United States  7735
 2    2018 United States  6994
 3    2018 France         6511
 4    2019 France         6449
 5    2017 United States  6397
 6    2017 France         5470
 7    2014 United States  5384
 8    2015 United States  4990
 9    2016 United States  4984
10    2013 United States  4481
# … with 323 more rows
…
Age trends

In this code-chunk we use a {ggplot2} function, cut_width(), to generate rough categories by age. dplyr::case_when() is a more thorough and sophisticated way to make some cuts in my data, but ggplot2::cut_width() works well for a quick visualization.

Note the use of labels, scales, themes, and guides in the last visualization. A good plot will need refinement with some or all of these functions.

my_df_joined |> 
  mutate(age_cut = cut_width(age, width = 10, boundary = 0), .after = age) |> 
  count(age_cut, gender, sort = TRUE)

# A tibble: 23 × 3
   age_cut gender     n
   <fct>   <chr>  <int>
 1 (40,50] M      48325
 2 (50,60] M      30175
 3 (30,40] M      25480
 4 (40,50] W       8630
 5 (60,70] M       7593
 6 (30,40] W       5450
 7 (50,60] W       5179
 8 (20,30] M       3121
 9 [0,10]  M       1211
10 (60,70] W        904
# … with 13 more rows
…
